,card,type,citizen
0,4146432275219,mastercard,0722661842695
1,5399158192624348,discover,0722661842695
2,4652945629115,mastercard,0722661842695
3,4572172186949175,visa16,0722661842695
4,4475252921812,mastercard,0722661842695
0,5539312119867115,discover,5235727286302
1,4378593844141,mastercard,5235727286302
2,41195412456678310,visa16,5235727286302
3,4568475512333,mastercard,5235727286302
0,5395142474478494,discover,2161913440082
1,5235914549191532,discover,2161913440082
0,4314791568737,mastercard,7023182768309
0,49845343982110,mastercard,6669908887363
0,4248697839455,mastercard,3181453586362
1,4437534356361579,visa16,3181453586362
2,48257485684141710,visa16,3181453586362
3,4193533765987,mastercard,3181453586362
4,4499923766356,mastercard,3181453586362
5,5444974644664921,discover,3181453586362
0,4984988595626415,visa16,7200183822442
1,4991628653997495,visa16,7200183822442
2,5354831818686189,discover,7200183822442
0,5328273942124352,discover,2671909408612
1,4354352888785,mastercard,2671909408612
2,4363442373332128,visa16,2671909408612
3,43185312582699210,visa16,2671909408612
4,49828859713210,mastercard,2671909408612
0,52764721945121310,discover,8691884606016
0,55173366384728310,discover,3775159937801
1,5112926674863568,discover,3775159937801
0,4348333793965,mastercard,9751582984988
1,49235939187973910,visa16,9751582984988
2,4783712816856,mastercard,9751582984988
3,5462288633736575,discover,9751582984988
0,5178471896378278,discover,6267215774578
1,5329775522649417,discover,6267215774578
2,4844918886372254,visa16,6267215774578
3,4243125572216699,visa16,6267215774578
4,4646768464535,mastercard,6267215774578
5,4348993651412,mastercard,6267215774578
0,4258558431329844,visa16,2149291393458
0,4594839613617,mastercard,9544732252833
1,5129486848455156,discover,9544732252833
0,4329528816985,mastercard,9145753087097
1,41858939344798310,visa16,9145753087097
2,5527734327283799,discover,9145753087097
3,5566731641389494,discover,9145753087097
4,5337584363325271,discover,9145753087097
0,4718392721233837,visa16,0661997303307
1,47122862445178810,visa16,0661997303307
2,4635881574874,mastercard,0661997303307
3,4226161724244454,visa16,0661997303307
4,4599919169568482,visa16,0661997303307
0,4481812756862,mastercard,62099249974910
1,4559552955776882,visa16,62099249974910
2,4364367293996,mastercard,62099249974910
3,5554367548381492,discover,62099249974910
4,4711532315593,mastercard,62099249974910
0,52457262949442310,discover,4828840975077
1,5488559114138659,discover,4828840975077
2,4319263289471924,visa16,4828840975077
3,54513519556797910,discover,4828840975077
0,49241793627935210,visa16,3049052099981
0,46465575396210,mastercard,2856355287352
1,4692927894582138,visa16,2856355287352
2,5414811598512126,discover,2856355287352
3,4361459697487174,visa16,2856355287352
4,45986398921810,mastercard,2856355287352
5,5334264375443627,discover,2856355287352
0,4583925417454,mastercard,1398600144537
0,5372584761287129,discover,5317262536301
1,4735859992825,mastercard,5317262536301
2,4548683313229,mastercard,5317262536301
3,4429158433523769,visa16,5317262536301
0,4271974825521248,visa16,2419868726827
1,4858842884268541,visa16,2419868726827
2,4469129725571,mastercard,2419868726827
0,5167827231579875,discover,5881669632992
0,4874899426139622,visa16,7343426856373
1,4772974184814,mastercard,7343426856373
2,5473354585366212,discover,7343426856373
3,4429289148935475,visa16,7343426856373
4,4653978436337,mastercard,7343426856373
5,44964862666433810,visa16,7343426856373
0,4181323184827334,visa16,1563939416316
1,5489287611132426,discover,1563939416316
2,5578995178611358,discover,1563939416316
3,4675157557963,mastercard,1563939416316
4,4521775725238785,visa16,1563939416316
0,45454688447148510,visa16,19853984290610
0,5142452598923317,discover,4420765198079
1,4765477464355517,visa16,4420765198079
2,5132568614636641,discover,4420765198079
3,4443993719879,mastercard,4420765198079
0,5138926623611993,discover,2311912118223
0,4353353189765751,visa16,5176186528154
1,4943285223142,mastercard,5176186528154
2,4817186457894,mastercard,5176186528154
3,4794947562671614,visa16,5176186528154
4,4148217235582,mastercard,5176186528154
0,5425369765323345,discover,2604425186177
1,4345678583223846,visa16,2604425186177
2,42633232389810,mastercard,2604425186177
3,54677112244522410,discover,2604425186177
4,5196725832759364,discover,2604425186177
0,4855313323574371,visa16,7102828812772
1,4949992657596783,visa16,7102828812772
2,5457814826456924,discover,7102828812772
3,4961723122726,mastercard,7102828812772
4,4334796678976,mastercard,7102828812772
5,4958635537637,mastercard,7102828812772
0,4864377631231569,visa16,9842843435542
1,4262695127285817,visa16,9842843435542
0,4171445421956,mastercard,7587850575981
0,5463216986816149,discover,0975925459727
1,4385744611735739,visa16,0975925459727
2,48325385847910,mastercard,0975925459727
3,4278743951145,mastercard,0975925459727
4,5178693815161895,discover,0975925459727
0,4876858913659,mastercard,2949589580287
1,4732449556392716,visa16,2949589580287
2,4351595224977732,visa16,2949589580287
0,5481916347127528,discover,4692270730957
1,5581769116499761,discover,4692270730957
2,5444312411812573,discover,4692270730957
0,5527875487837971,discover,4597301477732
1,4543845822715375,visa16,4597301477732
2,4152897832437,mastercard,4597301477732
0,5339932978133762,discover,1058026389962
0,4868198495646,mastercard,1120069523948
1,4937733149797447,visa16,1120069523948
2,5113329777459443,discover,1120069523948
3,4444962916373118,visa16,1120069523948
4,4539227329615174,visa16,1120069523948
0,4382257686812815,visa16,9552361444533
1,4213991641779389,visa16,9552361444533
2,4383297884423899,visa16,9552361444533
0,4371227912695824,visa16,5936225871961
1,5292874755832874,discover,5936225871961
2,5332167132414959,discover,5936225871961
3,4734694536881167,visa16,5936225871961
0,4347897782471,mastercard,7161541641244
1,4133344524173,mastercard,7161541641244
0,4317118255474,mastercard,9957138651118
1,4488389258228915,visa16,9957138651118
2,4985793599751634,visa16,9957138651118
3,4531758317366,mastercard,9957138651118
0,47264867895110,mastercard,8543194380932
0,5293818891839615,discover,5613990685012
1,44445651883228110,visa16,5613990685012
0,4797961872352,mastercard,8650144948974
1,5578794819816561,discover,8650144948974
0,4628577137294253,visa16,9504633602011
1,4153553312813,mastercard,9504633602011
2,4181257354294,mastercard,9504633602011
0,4261466326976,mastercard,2967073939611
1,4687443669737714,visa16,2967073939611
2,4662276247353,mastercard,2967073939611
3,4481311428179,mastercard,2967073939611
0,4795763666881,mastercard,5554107846608
1,4561851359155,mastercard,5554107846608
0,5152636153737651,discover,4599892377222
1,4275259781858,mastercard,4599892377222
2,4821758919888323,visa16,4599892377222
3,54896122673127510,discover,4599892377222
4,5217975431164327,discover,4599892377222
5,4499954368822282,visa16,4599892377222
0,4844624813959,mastercard,9790798007157
1,5146624431781112,discover,9790798007157
2,4314856961478284,visa16,9790798007157
3,43672412443910,mastercard,9790798007157
4,4311611744852,mastercard,9790798007157
5,5392789396477179,discover,9790798007157
0,4538156379442158,visa16,7803166118802
1,4265871348343,mastercard,7803166118802
2,5421442852725856,discover,7803166118802
3,4252675746922,mastercard,7803166118802
4,4885576113484,mastercard,7803166118802
5,4875581615714,mastercard,7803166118802
0,42748666717510,mastercard,75802408948410
1,4165962718676335,visa16,75802408948410
2,4982533327214,mastercard,75802408948410
3,4579689126318347,visa16,75802408948410
0,48756647119296510,visa16,3368318920734
1,4373314517224743,visa16,3368318920734
2,4945352374156284,visa16,3368318920734
3,5285541796585162,discover,3368318920734
0,5377895147775636,discover,5753030194872
1,44257479991781510,visa16,5753030194872
2,4846397285786,mastercard,5753030194872
0,4556922781254,mastercard,5042830171358
0,4128617514888569,visa16,5817808184182
0,4498892629756751,visa16,8997514597082
0,4119563893896412,visa16,8250159231782
1,4117581338333421,visa16,8250159231782
2,4896134518729666,visa16,8250159231782
3,4145471546347841,visa16,8250159231782
0,4418836643213,mastercard,3031971532602
0,4156729217881,mastercard,9442117922678
1,4443836141539,mastercard,9442117922678
2,49949199414510,mastercard,9442117922678
3,4538381722193,mastercard,9442117922678
0,47416919891110,mastercard,21360526688110
1,4778833743682,mastercard,21360526688110
0,5334842344795688,discover,8258831283387
1,4839333798681,mastercard,8258831283387
2,4957338451211,mastercard,8258831283387
3,4215473767259,mastercard,8258831283387
4,4425675829274,mastercard,8258831283387
5,4624455342546,mastercard,8258831283387
0,4536296587917,mastercard,4430112264866
1,4584814964219141,visa16,4430112264866
2,4758537797226,mastercard,4430112264866
3,4492923898316757,visa16,4430112264866
0,5184373813923529,discover,7397247303896
1,4556759395921,mastercard,7397247303896
2,4397195542887,mastercard,7397247303896
0,4624582374685936,visa16,2109899428057
1,5186212832357897,discover,2109899428057
0,48148267498310,mastercard,3127180137182
1,5219113517539141,discover,3127180137182
2,5139198454352696,discover,3127180137182
0,4244287163615421,visa16,0250206460455
1,4146711857247125,visa16,0250206460455
2,4816347523722677,visa16,0250206460455
0,4621129227385968,visa16,8809483180811
1,4188494459166,mastercard,8809483180811
0,4512641876884481,visa16,3565062271942
1,4251263154176,mastercard,3565062271942
2,4972442461287765,visa16,3565062271942
3,4627372465539219,visa16,3565062271942
0,5391236598332563,discover,3778608138492
1,4813887376238662,visa16,3778608138492
2,53115296611683610,discover,3778608138492
3,47681537458838110,visa16,3778608138492
4,4889866996533,mastercard,3778608138492
5,4492582855511,mastercard,3778608138492
0,5483976523481675,discover,7957266943778
1,4494959616799,mastercard,7957266943778
0,5385656411337853,discover,7952720383138
1,4441325748152,mastercard,7952720383138
2,4296521178988,mastercard,7952720383138
0,4791782459285282,visa16,5574688502776
0,4572649525315846,visa16,8673165846499
1,5576163756289111,discover,8673165846499
2,4578111558376215,visa16,8673165846499
3,4771421977452314,visa16,8673165846499
4,5211344931283887,discover,8673165846499
0,52948114444931210,discover,5286046043302
1,5171364329846127,discover,5286046043302
2,4797353771311,mastercard,5286046043302
3,4841668876169698,visa16,5286046043302
4,54838652618364410,discover,5286046043302
5,4796968827823,mastercard,5286046043302
0,5465421866846459,discover,9093775860073
1,4536655754512,mastercard,9093775860073
0,4498164539724356,visa16,8173918296681
1,5452479662994688,discover,8173918296681
2,4841787449618633,visa16,8173918296681
3,4738622958784,mastercard,8173918296681
4,45273295748410,mastercard,8173918296681
0,5362385157293669,discover,4889490812213
1,4661945494677,mastercard,4889490812213
2,46375228549545310,visa16,4889490812213
0,4841181213116844,visa16,5161233361163
1,5419383968737522,discover,5161233361163
0,4711247959147611,visa16,8247536924856
1,4281297248538,mastercard,8247536924856
2,4668248517997,mastercard,8247536924856
3,4714821164193,mastercard,8247536924856
4,5318463277475329,discover,8247536924856
0,4267956135765629,visa16,2433988400249
1,5328141336248311,discover,2433988400249
2,5297492143374247,discover,2433988400249
3,4662122936548,mastercard,2433988400249
4,4985367663289316,visa16,2433988400249
0,48135926469810,mastercard,7480763622145
0,5428337162872955,discover,1482366457949
1,4826978122634166,visa16,1482366457949
2,5198416819847988,discover,1482366457949
3,5311875314339183,discover,1482366457949
4,4924963859967931,visa16,1482366457949
0,44399347782310,mastercard,0210553893821
1,4347117432764393,visa16,0210553893821
2,4193857925763254,visa16,0210553893821
3,49854474726478610,visa16,0210553893821
4,4556398695442,mastercard,0210553893821
5,4545243656626,mastercard,0210553893821
0,5129258381385292,discover,0632852574432
1,4871262594146643,visa16,0632852574432
2,4978762942563474,visa16,0632852574432
3,4699949593912,mastercard,0632852574432
0,4641827429678,mastercard,7001238888078
0,4736525874994287,visa16,8015790270392
1,4149839116459954,visa16,8015790270392
2,4751345219434,mastercard,8015790270392
0,5163786177546856,discover,3285469018213
1,4536691115546,mastercard,3285469018213
0,4451875578396,mastercard,0131889367302
1,5599962766635186,discover,0131889367302
2,4663659568435625,visa16,0131889367302
3,5193755172277621,discover,0131889367302
4,5443122866968395,discover,0131889367302
5,4262941477288948,visa16,0131889367302
0,4968663422867,mastercard,6479497746003
1,4764425298141133,visa16,6479497746003
2,4447974437777468,visa16,6479497746003
3,4255192821557,mastercard,6479497746003
4,44728927754669410,visa16,6479497746003
5,5545712543665443,discover,6479497746003
0,5389796233348518,discover,1440263182813
1,4561713173918765,visa16,1440263182813
2,51128168614469810,discover,1440263182813
3,4975441976379,mastercard,1440263182813
4,4944367172888434,visa16,1440263182813
5,5131516777748597,discover,1440263182813
0,52119112342229510,discover,4930353731875
1,5134198496679879,discover,4930353731875
2,4484332796163784,visa16,4930353731875
3,4671434545285,mastercard,4930353731875
4,4778967722858,mastercard,4930353731875
5,4741675832211,mastercard,4930353731875
0,4654226345269544,visa16,1430344119135
1,4441486236138,mastercard,1430344119135
2,4852414776575,mastercard,1430344119135
3,5425687185496742,discover,1430344119135
4,44565745152251710,visa16,1430344119135
5,4225159548444,mastercard,1430344119135
0,4414327747452869,visa16,3399071647368
1,5121765555751685,discover,3399071647368
0,5252816598145541,discover,0443621199299
1,4368274776647,mastercard,0443621199299
2,4418851646464143,visa16,0443621199299
3,5118369584336611,discover,0443621199299
0,5547878548242872,discover,39330706692610
1,4252196338696,mastercard,39330706692610
2,5168187859523443,discover,39330706692610
3,4259987763614425,visa16,39330706692610
4,4373342772453,mastercard,39330706692610
5,49174591416610,mastercard,39330706692610
0,5422551532816791,discover,0157683270015
1,4499753529262,mastercard,0157683270015
2,5549525526231629,discover,0157683270015
0,46998832355210,mastercard,9093345833102
1,4179623636147,mastercard,9093345833102
0,4935739196965,mastercard,9472147278386
1,5489791271856737,discover,9472147278386
2,4425786615267799,visa16,9472147278386
3,4181415163686,mastercard,9472147278386
0,4774477173344,mastercard,2861102480036
1,43826713686665810,visa16,2861102480036
2,4193766353673291,visa16,2861102480036
3,4437857233159,mastercard,2861102480036
4,4341622636965528,visa16,2861102480036
5,5266491676343477,discover,2861102480036
0,5215471517895382,discover,6223224462881
1,5323495888221166,discover,6223224462881
2,4478778516611387,visa16,6223224462881
3,4362865134485812,visa16,6223224462881
0,5247289293246519,discover,9918186258792
1,5332654446354583,discover,9918186258792
2,4262578819398322,visa16,9918186258792
0,5198951128287781,discover,8138211670563
1,5325978242275562,discover,8138211670563
2,4423377173224,mastercard,8138211670563
3,4655968353927,mastercard,8138211670563
4,4343662214386,mastercard,8138211670563
0,5393891676242759,discover,5025641563758
0,4861733144537491,visa16,3087923861794
0,5371576975588483,discover,5028068236415
0,5144421331978373,discover,4527974482484
0,4987714236886,mastercard,1537246279109
1,5425832768695191,discover,1537246279109
2,4839685813385,mastercard,1537246279109
3,4481972653966,mastercard,1537246279109
4,52492676529231410,discover,1537246279109
5,47882817231110,mastercard,1537246279109
0,4726276369965554,visa16,4546759245634
1,5146399898384268,discover,4546759245634
2,5362873418647831,discover,4546759245634
3,4423396692725,mastercard,4546759245634
0,49283359952610,mastercard,9344748036495
1,5387955243642912,discover,9344748036495
2,5233662542288993,discover,9344748036495
3,4373566348474595,visa16,9344748036495
4,5115735477655981,discover,9344748036495
5,4724364345182,mastercard,9344748036495
0,5541827327164258,discover,0346273625864
1,4234933135145425,visa16,0346273625864
2,4327632115465765,visa16,0346273625864
0,4676467559773649,visa16,4030975988223
0,5289213593296262,discover,8100916685769
0,5243448945694344,discover,4356801571826
1,5572615845641291,discover,4356801571826
0,5556622884141753,discover,42007910385910
1,5282615336187987,discover,42007910385910
0,4343281247643,mastercard,9976485941598
1,4728569587186419,visa16,9976485941598
2,4123411481258,mastercard,9976485941598
3,4829853371555,mastercard,9976485941598
4,4396446714132445,visa16,9976485941598
5,4364681839888,mastercard,9976485941598
0,4629553252766192,visa16,1134451782187
1,4584267699616695,visa16,1134451782187
2,4259868614783,mastercard,1134451782187
3,4863784586177682,visa16,1134451782187
0,4425557173361,mastercard,47809401995110
0,4341878248719,mastercard,7697082407205
1,5178551656739627,discover,7697082407205
2,52247376824432510,discover,7697082407205
3,4958917271475914,visa16,7697082407205
4,4824378693898,mastercard,7697082407205
5,4527327986836727,visa16,7697082407205
0,4728384122372,mastercard,0270097571111
1,5414747843559746,discover,0270097571111
2,4686321835839,mastercard,0270097571111
3,5188173924637778,discover,0270097571111
4,4734442742912,mastercard,0270097571111
5,4372984668452854,visa16,0270097571111
0,5336673294921117,discover,3253527218745
1,4453692174892727,visa16,3253527218745
2,4664468659676,mastercard,3253527218745
3,4765822988417899,visa16,3253527218745
0,4379493356285686,visa16,8262872955139
1,4799338491932,mastercard,8262872955139
0,4486322377612,mastercard,9637945177601
1,4128399298135315,visa16,9637945177601
2,4258873771158,mastercard,9637945177601
0,5487429159398348,discover,7892637755407
1,5389278142475252,discover,7892637755407
2,5284357391883618,discover,7892637755407
3,5227882386918863,discover,7892637755407
4,5547656193879333,discover,7892637755407
5,5338246131678865,discover,7892637755407
0,5484614969188418,discover,2178054424537
1,5261655142237878,discover,2178054424537
0,5574138656536268,discover,9249768352754
0,4845774845436,mastercard,0066374387902
1,4396636129294422,visa16,0066374387902
2,4269122399972,mastercard,0066374387902
0,4337573192848,mastercard,8795666281967
1,5438654635578235,discover,8795666281967
0,4781469217443955,visa16,41423901933510
1,4749656969787,mastercard,41423901933510
2,53715949793125610,discover,41423901933510
3,4538751122529,mastercard,41423901933510
4,54999117927939410,discover,41423901933510
0,4655799854952,mastercard,4355793929452
1,4344227469395558,visa16,4355793929452
2,4695364955776,mastercard,4355793929452
3,5121147546428485,discover,4355793929452
4,5239698136677849,discover,4355793929452
5,4487998641345854,visa16,4355793929452
0,4335862119598788,visa16,2859424875583
1,5367241124219532,discover,2859424875583
2,4753668116361,mastercard,2859424875583
3,46916797518110,mastercard,2859424875583
4,4876645634675,mastercard,2859424875583
5,5481962114764416,discover,2859424875583
0,5196892195911436,discover,3790575627989
0,5141587847847915,discover,0355977036482
1,4427161772517774,visa16,0355977036482
2,4723132356515675,visa16,0355977036482
0,48192775718459710,visa16,7326100588581
0,4487261151245141,visa16,4396856222272
0,4198874923152,mastercard,14769509046610
1,4576273289222183,visa16,14769509046610
2,5452737461933938,discover,14769509046610
0,4165197764644826,visa16,2124626511576
0,47945383335710,mastercard,6904618257564
1,4765641525476,mastercard,6904618257564
2,4286197539441999,visa16,6904618257564
3,4951776715224917,visa16,6904618257564
4,4617797397525542,visa16,6904618257564
5,43345344968695510,visa16,6904618257564
0,5292279523976948,discover,8455514522409
1,4448889664188,mastercard,8455514522409
2,5387838899688753,discover,8455514522409
3,5136167665222215,discover,8455514522409
4,5199422864115577,discover,8455514522409
5,43168842367916110,visa16,8455514522409
0,5573967856252396,discover,5171069136034
1,4579193992715835,visa16,5171069136034
2,4758659434629431,visa16,5171069136034
3,4642689777758,mastercard,5171069136034
0,4563916129789,mastercard,3087319185053
0,4718416288656138,visa16,3255164806951
0,4192351882338,mastercard,3365249194801
1,5214179868961882,discover,3365249194801
0,4693611942267,mastercard,4348634640965
0,4841332824815684,visa16,1558450789455
1,5126585451151763,discover,1558450789455
2,4128963118596,mastercard,1558450789455
3,49293438416498610,visa16,1558450789455
4,4443291663944,mastercard,1558450789455
5,4861261528732,mastercard,1558450789455
0,46433371265856210,visa16,5681097180544
1,5423811318781216,discover,5681097180544
0,4252537142963,mastercard,3906123977952
1,4432881974631254,visa16,3906123977952
2,5131258212449115,discover,3906123977952
3,5376727673747955,discover,3906123977952
4,4191965728952,mastercard,3906123977952
5,4563747741742453,visa16,3906123977952
0,5532867322556414,discover,11257464293910
1,42452824451110,mastercard,11257464293910
2,4599144615486987,visa16,11257464293910
3,4388862274574554,visa16,11257464293910
0,5231313843347961,discover,1320522302241
1,4743391482422943,visa16,1320522302241
2,5268334514464378,discover,1320522302241
3,4919354224585474,visa16,1320522302241
0,4555265736769944,visa16,7902442952385
1,4874736584289,mastercard,7902442952385
2,4851731922292,mastercard,7902442952385
3,4524644847324,mastercard,7902442952385
4,4771241942994491,visa16,7902442952385
0,5464872696284587,discover,7285962891304
1,4586156954379651,visa16,7285962891304
2,4151218426499,mastercard,7285962891304
0,4839525468694794,visa16,66820624984410
1,45175489956610,mastercard,66820624984410
2,55847333322765910,discover,66820624984410
3,4575541175235,mastercard,66820624984410
4,5331176664356463,discover,66820624984410
0,5178351865595526,discover,6638787898407
1,4772686987459348,visa16,6638787898407
2,4742147794229,mastercard,6638787898407
3,4856241921397722,visa16,6638787898407
4,5478343932585645,discover,6638787898407
0,5496484328744368,discover,1227778960962
1,4138356372896632,visa16,1227778960962
2,4284873547445741,visa16,1227778960962
3,5515397767935593,discover,1227778960962
0,4333444681367132,visa16,0047886262672
1,5388941591394693,discover,0047886262672
2,4946472238534,mastercard,0047886262672
3,46484729486251910,visa16,0047886262672
4,5258527714549151,discover,0047886262672
5,5479766955493926,discover,0047886262672
0,4336683742842586,visa16,2720829242988
0,5562644327857292,discover,3556020443762
1,4671671545253,mastercard,3556020443762
0,4192898863847536,visa16,5947013209573
1,54933362644847510,discover,5947013209573
2,4145395625644259,visa16,5947013209573
3,4366193984362726,visa16,5947013209573
4,4767749977948,mastercard,5947013209573
0,4496724124279827,visa16,9392100511395
0,4429994635225682,visa16,0603638400365
1,5122546195917632,discover,0603638400365
0,52189842329618810,discover,3501999242892
1,5329417194411715,discover,3501999242892
2,4466754264957961,visa16,3501999242892
3,5531928698792883,discover,3501999242892
4,5526424189437581,discover,3501999242892
5,4838941293431313,visa16,3501999242892
0,4656184417747533,visa16,2952802205313
1,4963968289459682,visa16,2952802205313
2,4355627232475346,visa16,2952802205313
3,5247671799331137,discover,2952802205313
0,5362813692464552,discover,74634581561810
1,41359922296910,mastercard,74634581561810
2,4474648851891551,visa16,74634581561810
0,55414423749591610,discover,2699021243262
1,4255343253239,mastercard,2699021243262
2,4528255555321269,visa16,2699021243262
3,4464343646711,mastercard,2699021243262
0,5195661541816461,discover,3972568712072
1,49226362654410,mastercard,3972568712072
2,5497315183477117,discover,3972568712072
3,4917769958241,mastercard,3972568712072
4,53782277716179510,discover,3972568712072
0,5334878286641522,discover,41511032436010
1,4585826318933176,visa16,41511032436010
2,5169759294343634,discover,41511032436010
3,5144945795245499,discover,41511032436010
4,4641712812515655,visa16,41511032436010
0,44537388368710,mastercard,1832478575206
1,5449164815522158,discover,1832478575206
2,5352278932155877,discover,1832478575206
3,5457152811963483,discover,1832478575206
0,5176424581319117,discover,9822383341892
1,4814324776874853,visa16,9822383341892
2,4373147881988,mastercard,9822383341892
3,5292858479867381,discover,9822383341892
4,4668449562526727,visa16,9822383341892
0,5433592283919225,discover,6566702285617
1,4648945664714,mastercard,6566702285617
2,4297174868762243,visa16,6566702285617
3,4638579912727554,visa16,6566702285617
0,5187916335279411,discover,09141083168710
0,4724881175518,mastercard,1745572005942
0,4411155561553,mastercard,4594120072221
1,5382743928428855,discover,4594120072221
2,5582581843568944,discover,4594120072221
3,5235157449491335,discover,4594120072221
4,4824674622815,mastercard,4594120072221
5,4813488196147751,visa16,4594120072221
0,5449266848919655,discover,7154388087919
0,4132344468512178,visa16,7928467961512
0,48821824932110,mastercard,6103772329568
0,4129199735242719,visa16,5929731043406
1,4642886684435967,visa16,5929731043406
2,5499621633838818,discover,5929731043406
3,4635543425499,mastercard,5929731043406
4,42172823288110,mastercard,5929731043406
0,5531812151787921,discover,5235366871114
1,4433513896372,mastercard,5235366871114
0,5112229243835617,discover,8719468809812
1,4747773168937,mastercard,8719468809812
0,4434219942494,mastercard,6912934032885
1,5239437471961751,discover,6912934032885
2,4814563626848498,visa16,6912934032885
0,5412385652366739,discover,5509580025009
0,4799189544987,mastercard,1395805277463
1,4467863384316,mastercard,1395805277463
2,4899894682149572,visa16,1395805277463
3,5451454963719473,discover,1395805277463
4,5449981146117741,discover,1395805277463
0,5416922356776643,discover,1247135733572
1,4388649165295484,visa16,1247135733572
2,4861215967571658,visa16,1247135733572
3,5471725796745835,discover,1247135733572
0,5593413637533115,discover,2310853661352
0,5326899397986648,discover,5649339501689
0,5513953517667464,discover,5672562203033
1,5327952477269929,discover,5672562203033
2,4213142215255,mastercard,5672562203033
3,4483666162528,mastercard,5672562203033
4,5456235367235843,discover,5672562203033
5,4889391352541,mastercard,5672562203033
0,4278662893443,mastercard,0008456942863
1,5312735893643265,discover,0008456942863
2,5266253292177956,discover,0008456942863
3,5266428916265599,discover,0008456942863
0,5489631715338191,discover,3673681568781
1,5574593764767611,discover,3673681568781
2,5226275256683769,discover,3673681568781
0,4329445463512544,visa16,2203966155537
1,4981249712182672,visa16,2203966155537
2,5363121824586675,discover,2203966155537
0,4699365915376839,visa16,7928720225262
1,4133222257862,mastercard,7928720225262
2,4931624445724,mastercard,7928720225262
0,4485575319313,mastercard,2645486047909
0,5221121442477358,discover,8268581401043
1,42512776171510,mastercard,8268581401043
2,4693531415634,mastercard,8268581401043
3,5164264166768187,discover,8268581401043
4,4329214498927683,visa16,8268581401043
0,46517238854976610,visa16,5417640369654
1,5164363746859852,discover,5417640369654
2,44737779324391710,visa16,5417640369654
3,4339926687746263,visa16,5417640369654
4,4568244577278,mastercard,5417640369654
0,4724333938331,mastercard,9478922365331
1,5154491138588821,discover,9478922365331
0,4649813951333181,visa16,0068006342042
1,5186536698795331,discover,0068006342042
0,4818166595463,mastercard,5142633140696
1,5169633163698677,discover,5142633140696
2,4981289794858,mastercard,5142633140696
3,55763194633734210,discover,5142633140696
4,5332314496714653,discover,5142633140696
0,4759854545214,mastercard,6944046376695
1,4227167627496132,visa16,6944046376695
2,4942541799267,mastercard,6944046376695
3,4672271646939,mastercard,6944046376695
0,41488222648359610,visa16,0543931347163
1,5527132476148535,discover,0543931347163
2,4614624647827424,visa16,0543931347163
0,4136944854885439,visa16,6776950816866
1,4712454284246865,visa16,6776950816866
2,5222198728921894,discover,6776950816866
3,5215245778543786,discover,6776950816866
0,4185212225549,mastercard,1633383053299
1,4575231943363,mastercard,1633383053299
2,5155118785781347,discover,1633383053299
3,4891571875663,mastercard,1633383053299
0,5339744218334351,discover,2669769175499
1,4732854677398411,visa16,2669769175499
2,4585617419927757,visa16,2669769175499
0,4461163925789794,visa16,8971745082262
1,5415252355218772,discover,8971745082262
2,4829491541889939,visa16,8971745082262
3,4667156399752,mastercard,8971745082262
4,4525985338658,mastercard,8971745082262
5,4217311388983829,visa16,8971745082262
0,4132912896484,mastercard,6886086695891
1,4391787853141,mastercard,6886086695891
2,4296867443275786,visa16,6886086695891
3,4682895999523,mastercard,6886086695891
4,5515424165949214,discover,6886086695891
5,5484521541923875,discover,6886086695891
0,5255412852972536,discover,0921183473102
1,5422283746923961,discover,0921183473102
2,5422894987391195,discover,0921183473102
0,4147933589311156,visa16,7747031537984
1,5121491148652815,discover,7747031537984
0,4528692183443158,visa16,36581069628310
1,4437699788329,mastercard,36581069628310
2,4697277813489279,visa16,36581069628310
3,55686377941266910,discover,36581069628310
4,4387718154989125,visa16,36581069628310
0,4936823318366,mastercard,3208539439908
1,4565633861453,mastercard,3208539439908
2,4175533423876771,visa16,3208539439908
0,48864372852436510,visa16,0228306566724
0,5517151334693773,discover,2887647121455
1,4915942621375814,visa16,2887647121455
2,4817438324637,mastercard,2887647121455
3,5377264446615276,discover,2887647121455
4,4876129826571598,visa16,2887647121455
5,5564154319982122,discover,2887647121455
0,4588363985789,mastercard,1802537740417
1,4958573363657,mastercard,1802537740417
2,5272148869917671,discover,1802537740417
3,5518872422276879,discover,1802537740417
4,4627335396814,mastercard,1802537740417
5,4954971249538364,visa16,1802537740417
0,4969339365856114,visa16,8354634989322
1,5529763181634944,discover,8354634989322
2,48693482921810,mastercard,8354634989322
0,4666949915197,mastercard,8097462084304
1,5146322781339876,discover,8097462084304
2,4979734758544,mastercard,8097462084304
0,4252458733435421,visa16,1081677658361
1,4324764481552,mastercard,1081677658361
2,4647717457547,mastercard,1081677658361
3,5113316957667424,discover,1081677658361
4,4298275465538,mastercard,1081677658361
5,5154776345523755,discover,1081677658361
0,4577396194352,mastercard,2669134336614
1,4839865324912869,visa16,2669134336614
2,5481625519837273,discover,2669134336614
3,5221378414984882,discover,2669134336614
4,5315922189697117,discover,2669134336614
0,5117943684866544,discover,7416956846182
1,5392473129689893,discover,7416956846182
2,4774392953916472,visa16,7416956846182
3,4862691672793986,visa16,7416956846182
4,5123628551531824,discover,7416956846182
5,4474595533145,mastercard,7416956846182
0,4837423654491,mastercard,8045403570867
1,5122195345637938,discover,8045403570867
2,5574729864194633,discover,8045403570867
0,4472691745848199,visa16,4968573943072
1,5484912638617456,discover,4968573943072
2,4386719497178518,visa16,4968573943072
3,5252712923817328,discover,4968573943072
4,4654357859768,mastercard,4968573943072
0,4419267963392677,visa16,9903991016295
1,5299832335437864,discover,9903991016295
2,4627875968741,mastercard,9903991016295
3,5456895643235576,discover,9903991016295
0,4766119519495331,visa16,8185333209299
1,5572293156783191,discover,8185333209299
0,4375523567258249,visa16,8265051171773
0,4771678169671783,visa16,9007385413582
1,4342398137135,mastercard,9007385413582
2,43576629611281610,visa16,9007385413582
3,5578559164758456,discover,9007385413582
0,4267378597935,mastercard,91363824197310
1,4656569865299443,visa16,91363824197310
2,5277571892224655,discover,91363824197310
3,4879175568834,mastercard,91363824197310
0,47171151281710,mastercard,5975473549333
1,5252389845479881,discover,5975473549333
2,4974223856772621,visa16,5975473549333
3,4187638277823,mastercard,5975473549333
4,4448524744856239,visa16,5975473549333
0,4615661671298,mastercard,1988559124802
1,4853436365124,mastercard,1988559124802
0,5189479157296318,discover,8219413728902
1,53258913479753510,discover,8219413728902
0,5275636371258672,discover,1625957258132
1,4566576152488,mastercard,1625957258132
2,5434247477151452,discover,1625957258132
3,4373482532675197,visa16,1625957258132
0,4128245177915,mastercard,6972761603649
1,5532552584734459,discover,6972761603649
0,46434512121810,mastercard,69120328120210
1,4138817183464,mastercard,69120328120210
2,4369896346263492,visa16,69120328120210
0,4744255629684,mastercard,8886758574172
0,4423475458723793,visa16,9681258445555
0,43466839796839910,visa16,2633528610752
1,4395457643159178,visa16,2633528610752
0,45694971643893910,visa16,7350489631988
1,4466198284891729,visa16,7350489631988
0,5253549671153442,discover,7714115957272
1,4663642152327,mastercard,7714115957272
2,5121388531159947,discover,7714115957272
3,4755222787132,mastercard,7714115957272
0,4453186611171,mastercard,4916391075918
1,5235812849778471,discover,4916391075918
2,4291412248799337,visa16,4916391075918
0,4341458822467866,visa16,7649839507186
1,4685475473399556,visa16,7649839507186
2,4712556671526921,visa16,7649839507186
3,4588946483476,mastercard,7649839507186
4,5252994971245947,discover,7649839507186
0,5469982581165638,discover,0679602141586
1,49527261593988910,visa16,0679602141586
2,4688226932851,mastercard,0679602141586
3,4477857361155699,visa16,0679602141586
4,4874998535664,mastercard,0679602141586
0,5396525535412594,discover,9598410857706
1,4239179736578722,visa16,9598410857706
2,4366724727467,mastercard,9598410857706
0,4415158566633712,visa16,8344631525013
1,4435648131229,mastercard,8344631525013
2,4581849981956286,visa16,8344631525013
3,4124812215791543,visa16,8344631525013
4,5499337168146382,discover,8344631525013
5,4776474712936211,visa16,8344631525013
0,4515395863981,mastercard,8476281680539
1,4261547854262868,visa16,8476281680539
2,4494282567552,mastercard,8476281680539
3,47976518824310,mastercard,8476281680539
4,4689985994214759,visa16,8476281680539
5,4938199698918,mastercard,8476281680539
0,5597445851276944,discover,4883222767926
1,4327495585187,mastercard,4883222767926
2,5185674333779765,discover,4883222767926
0,4769688426489725,visa16,2331905825831
1,49298881538644410,visa16,2331905825831
0,4784187883687179,visa16,9277437554811
1,5194786937374659,discover,9277437554811
2,4254925669622881,visa16,9277437554811
3,4978945987686,mastercard,9277437554811
4,4347922889452479,visa16,9277437554811
0,4867321163584,mastercard,9803230840751
1,5497874381857769,discover,9803230840751
2,4133315863753418,visa16,9803230840751
3,5296992154828768,discover,9803230840751
4,5515315123714684,discover,9803230840751
0,5168446193431626,discover,0533780111832
1,5244293263636611,discover,0533780111832
2,5582319465284767,discover,0533780111832
3,4113715254493,mastercard,0533780111832
4,5218926726752648,discover,0533780111832
0,49167336858810,mastercard,6871189161569
1,4178658721618,mastercard,6871189161569
2,5171974875182394,discover,6871189161569
0,4826886335714,mastercard,0383098422456
1,4194984893688344,visa16,0383098422456
0,4863482967277,mastercard,1703296097637
1,4624366244419,mastercard,1703296097637
2,44172168369569710,visa16,1703296097637
0,4717219775439,mastercard,6074790165581
1,4422816624573,mastercard,6074790165581
2,47737593853610,mastercard,6074790165581
0,4576283932866,mastercard,25167539617910
1,5167327922766139,discover,25167539617910
2,4781121639984,mastercard,25167539617910
3,4928751498818763,visa16,25167539617910
0,5135351262472339,discover,7249957626792
1,45814825911910,mastercard,7249957626792
2,4116742285455,mastercard,7249957626792
0,5395593774378992,discover,9753232729875
1,4127181964344,mastercard,9753232729875
2,5185261172378584,discover,9753232729875
3,5576311334922519,discover,9753232729875
0,5253313584459333,discover,63090047284710
1,48666746898810,mastercard,63090047284710
2,4281482541844124,visa16,63090047284710
3,4611852357722,mastercard,63090047284710
4,4333226355576571,visa16,63090047284710
0,55393243785243610,discover,1843164840056
1,5229816351153328,discover,1843164840056
2,5388763896529199,discover,1843164840056
3,4555648838455,mastercard,1843164840056
0,5251747636473747,discover,3102628170748
1,4218145355438,mastercard,3102628170748
2,5114496947475671,discover,3102628170748
3,4271426195334116,visa16,3102628170748
4,5243736154825892,discover,3102628170748
5,5468999783246868,discover,3102628170748
0,47648968855428110,visa16,9529798191713
1,4319999681838471,visa16,9529798191713
2,43417961423149410,visa16,9529798191713
3,4998757235438117,visa16,9529798191713
0,5388749494964946,discover,7268893617167
1,5484234121986235,discover,7268893617167
2,41896195379110,mastercard,7268893617167
3,5579612589231572,discover,7268893617167
4,4921543447428183,visa16,7268893617167
0,5132492385584825,discover,6060857143612
1,4963775815355,mastercard,6060857143612
2,4325225646519,mastercard,6060857143612
3,41812325379548210,visa16,6060857143612
4,4153271515135,mastercard,6060857143612
5,4317558147246299,visa16,6060857143612
0,4675885511186165,visa16,4383051871435
0,4923543985138,mastercard,15962214870510
1,4133471895172,mastercard,15962214870510
2,4776951827121,mastercard,15962214870510
3,5529431715685317,discover,15962214870510
4,5258594599178811,discover,15962214870510
5,5417286911311299,discover,15962214870510
0,5168725662348688,discover,0266095730722
1,4866286834775959,visa16,0266095730722
2,4851168219413942,visa16,0266095730722
3,5253858251551242,discover,0266095730722
0,4588283383559485,visa16,3935939275105
1,5393192828192566,discover,3935939275105
2,4422373535386,mastercard,3935939275105
3,4957455253451786,visa16,3935939275105
0,43872899915210,mastercard,8075460660926
1,4283891864151958,visa16,8075460660926
0,5187674847869597,discover,0534628393406
1,5576691856696215,discover,0534628393406
0,5189814332977624,discover,8606270100399
1,5321323855481815,discover,8606270100399
2,4869842421494128,visa16,8606270100399
3,5259224946633792,discover,8606270100399
0,5577331561499477,discover,97780298219710
1,5346177823369655,discover,97780298219710
2,4921294791733576,visa16,97780298219710
3,4452239895922,mastercard,97780298219710
0,4881413617381,mastercard,4220552106642
1,4823959829121114,visa16,4220552106642
2,4353166432595126,visa16,4220552106642
0,5439367714463778,discover,3875812879106
1,4147736641914754,visa16,3875812879106
2,4936485215848452,visa16,3875812879106
3,4779556854324383,visa16,3875812879106
4,4694846246763,mastercard,3875812879106
5,4958247558492915,visa16,3875812879106
0,4383256965785394,visa16,83099805409010
0,5478573935713519,discover,2298544873175
0,4239329117876431,visa16,0082647248141
1,4919861492214751,visa16,0082647248141
2,5253989367635551,discover,0082647248141
0,4726428662114,mastercard,9526015847335
1,4394493962263,mastercard,9526015847335
2,5221678133795489,discover,9526015847335
3,4692832952729268,visa16,9526015847335
4,4922181393733337,visa16,9526015847335
5,5378262258663557,discover,9526015847335
0,4566424722649,mastercard,8862288960246
1,4765467274241,mastercard,8862288960246
2,4356927546848,mastercard,8862288960246
3,5381118459564785,discover,8862288960246
4,5173956143719931,discover,8862288960246
5,4858478424432,mastercard,8862288960246
0,4392582454192,mastercard,9169194287794
1,4323438181184,mastercard,9169194287794
2,4591382652661,mastercard,9169194287794
3,4394246618364181,visa16,9169194287794
4,4239754148869248,visa16,9169194287794
5,4933278825647346,visa16,9169194287794
0,4463584116152,mastercard,6417197203177
1,4296398396334271,visa16,6417197203177
2,5262186414895465,discover,6417197203177
3,4629573741511,mastercard,6417197203177
0,4925936431539,mastercard,1532135826549
1,4813287713411397,visa16,1532135826549
2,55449322557994510,discover,1532135826549
3,5468588654884632,discover,1532135826549
4,4975396894675698,visa16,1532135826549
5,5453659742244837,discover,1532135826549
0,5583733893934679,discover,7979039307031
1,45812352733515610,visa16,7979039307031
2,5511372318693151,discover,7979039307031
0,41726362345356110,visa16,7948974017325
1,4879532514927,mastercard,7948974017325
2,4139466923432,mastercard,7948974017325
0,4821568577196,mastercard,7115962664856
0,4429374198692,mastercard,7192320738874
1,4742216735723,mastercard,7192320738874
2,5242986193958789,discover,7192320738874
3,5425396356839397,discover,7192320738874
4,4667846913426,mastercard,7192320738874
5,5221494787891495,discover,7192320738874
0,4856396752611,mastercard,59311672248110
1,5147458218673765,discover,59311672248110
2,5313452997972967,discover,59311672248110
3,5561339848398535,discover,59311672248110
4,4996275947385,mastercard,59311672248110
5,4892981575175736,visa16,59311672248110
0,4378758614194347,visa16,2163180360297
1,4569487869691729,visa16,2163180360297
2,53665996451531710,discover,2163180360297
3,4812613849912472,visa16,2163180360297
0,5555516874568671,discover,7782190986002
1,4188185912966293,visa16,7782190986002
0,4575488352588275,visa16,0195380390551
0,4916591199826,mastercard,9594332177869
1,4133249949178,mastercard,9594332177869
2,5332454392183155,discover,9594332177869
0,4314331991563,mastercard,06401979018710
1,4833672176669399,visa16,06401979018710
2,4111446953433,mastercard,06401979018710
3,5438159467188533,discover,06401979018710
0,4175259621924,mastercard,1435761439144
1,4546712733631,mastercard,1435761439144
2,5346919174311525,discover,1435761439144
