,card,type,citizen
0,4742485648576419,visa16,6440941811412
1,4238216237547151,visa16,6440941811412
2,4991213487446,mastercard,6440941811412
3,4166493784688458,visa16,6440941811412
4,4744681475427985,visa16,6440941811412
5,5225935528786945,discover,6440941811412
0,5548635237167672,discover,2373335685818
0,4732482544248,mastercard,4269989577545
0,4313915495389,mastercard,5374692884312
1,4826735532222648,visa16,5374692884312
0,4777499752193,mastercard,9622392163098
1,5275673612181538,discover,9622392163098
2,4777186495361,mastercard,9622392163098
0,5161292585495739,discover,3138950942912
1,4497127466963,mastercard,3138950942912
2,4295831237843622,visa16,3138950942912
0,4824466496853168,visa16,7259057066284
1,4914266292257,mastercard,7259057066284
2,5554715197624127,discover,7259057066284
3,4894956524161,mastercard,7259057066284
0,5176384656523284,discover,6361336334442
1,4533212913186,mastercard,6361336334442
2,4241873139529987,visa16,6361336334442
3,4899235921476,mastercard,6361336334442
4,4249767332622353,visa16,6361336334442
5,4146861372395659,visa16,6361336334442
0,4526145232914,mastercard,7595167934063
1,5336743474478384,discover,7595167934063
2,4514377566332,mastercard,7595167934063
0,4419587782939535,visa16,8502523880238
1,5488274169846772,discover,8502523880238
0,5177363147239329,discover,7865435981271
1,43214296353342910,visa16,7865435981271
2,4454429122158,mastercard,7865435981271
3,5427482115627527,discover,7865435981271
4,4481781469257,mastercard,7865435981271
5,5544616748546798,discover,7865435981271
0,4934116667363284,visa16,95244238029110
1,4232176678844374,visa16,95244238029110
2,4892522931543942,visa16,95244238029110
3,4539425155317,mastercard,95244238029110
4,5542741178674217,discover,95244238029110
0,4386758591946289,visa16,9139153844214
1,4499984657294646,visa16,9139153844214
2,4693735789297,mastercard,9139153844214
0,4896287447657,mastercard,9230120118582
1,4732982149951473,visa16,9230120118582
2,4367173385178359,visa16,9230120118582
0,5253465696595832,discover,7100616614604
0,47646328483936810,visa16,4513345560958
1,5518659466676985,discover,4513345560958
2,5221672937897971,discover,4513345560958
3,5238161678712129,discover,4513345560958
4,4273341271798,mastercard,4513345560958
0,4915436372523,mastercard,7943422220851
1,4987723592215228,visa16,7943422220851
2,49282829382310,mastercard,7943422220851
3,5216562136597471,discover,7943422220851
4,5358699569197458,discover,7943422220851
5,4429551851345,mastercard,7943422220851
0,5367791331319921,discover,0233459195833
0,4674374196871871,visa16,3603791806326
1,47862947813756310,visa16,3603791806326
0,4732435843473,mastercard,83424080701410
0,46826936712153410,visa16,5060478891892
1,44444562359782110,visa16,5060478891892
2,4123227397765812,visa16,5060478891892
3,4575516681737443,visa16,5060478891892
0,5235222926595857,discover,9571652949266
1,4237788658486,mastercard,9571652949266
2,44776662457710,mastercard,9571652949266
3,4867783289741667,visa16,9571652949266
4,4351218596744628,visa16,9571652949266
0,46551838284310,mastercard,6707632374038
1,5283133512268943,discover,6707632374038
0,4276429629637257,visa16,5311644202563
0,4712355424355,mastercard,5793624312671
1,4899793897862211,visa16,5793624312671
2,4158655649749,mastercard,5793624312671
3,4915393559936328,visa16,5793624312671
4,4137595347192,mastercard,5793624312671
0,4146828822665,mastercard,6858712705421
0,48988446313873610,visa16,39789644534310
1,4988523438946922,visa16,39789644534310
2,5183864168985858,discover,39789644534310
3,4933329599248421,visa16,39789644534310
4,4312652372652,mastercard,39789644534310
5,4151348863765295,visa16,39789644534310
0,5157119928512266,discover,5854558775907
1,4838382525235299,visa16,5854558775907
2,4845832434793,mastercard,5854558775907
3,4577876697684,mastercard,5854558775907
4,4895229869465,mastercard,5854558775907
5,4761117126857,mastercard,5854558775907
0,5441782271719436,discover,36390631152110
1,4451513386296881,visa16,36390631152110
2,44499818291477610,visa16,36390631152110
3,4144261124897,mastercard,36390631152110
4,4938546725493226,visa16,36390631152110
0,5457963486297498,discover,9460756188113
0,4947299378982,mastercard,41394921993710
1,4539925465328649,visa16,41394921993710
2,5452153946688719,discover,41394921993710
3,5445927712171442,discover,41394921993710
4,4884737787914,mastercard,41394921993710
0,5255795458794944,discover,4356906383426
1,5445764527488251,discover,4356906383426
2,4515894721342,mastercard,4356906383426
0,4864392813829544,visa16,6564983655543
1,41455295225344910,visa16,6564983655543
2,5366269671698411,discover,6564983655543
3,5529291816436428,discover,6564983655543
4,51288263865698210,discover,6564983655543
0,4467617676116,mastercard,17645457893510
0,5383339643255597,discover,2222366453587
1,5246766864551675,discover,2222366453587
2,4254383311262,mastercard,2222366453587
3,51665121514823810,discover,2222366453587
4,5322916361546143,discover,2222366453587
5,5574423542456487,discover,2222366453587
0,5169759752554961,discover,5917432661335
1,4369467932856,mastercard,5917432661335
0,4818957836191,mastercard,4908838019945
1,4311967779786967,visa16,4908838019945
2,52988199995721610,discover,4908838019945
3,5359231871493547,discover,4908838019945
4,4371878748582,mastercard,4908838019945
5,49325793472210,mastercard,4908838019945
0,41732225159510,mastercard,3776895962563
1,4287577716455376,visa16,3776895962563
2,4474989361255162,visa16,3776895962563
0,4327246392971195,visa16,2156905676298
1,4623842111825398,visa16,2156905676298
0,5299871471217821,discover,1149458343043
1,4883666138375821,visa16,1149458343043
2,4796334289218128,visa16,1149458343043
3,4846862163189197,visa16,1149458343043
4,5399851869546436,discover,1149458343043
0,4191879256242692,visa16,2771814290958
1,4228438737192468,visa16,2771814290958
0,4943199839611,mastercard,3852712842062
1,4456769268266724,visa16,3852712842062
2,4864216566419,mastercard,3852712842062
3,4778425122279,mastercard,3852712842062
4,4681577984428834,visa16,3852712842062
5,4732527296495236,visa16,3852712842062
0,43498155464129110,visa16,6695305425909
1,4823238873828647,visa16,6695305425909
2,4461379632193,mastercard,6695305425909
3,4718552784186,mastercard,6695305425909
4,5555143713623391,discover,6695305425909
5,4276544216134987,visa16,6695305425909
0,4381469543414864,visa16,8180480480871
1,4823161611299,mastercard,8180480480871
0,4576613613264627,visa16,3569095049779
1,4396786623577,mastercard,3569095049779
2,4616781256689,mastercard,3569095049779
3,4376429442478,mastercard,3569095049779
4,4423579758335,mastercard,3569095049779
5,4225239431728,mastercard,3569095049779
0,45624193281814610,visa16,8016094839477
1,4467398495146694,visa16,8016094839477
2,4543477349778,mastercard,8016094839477
3,43648898216710,mastercard,8016094839477
4,5536975144514747,discover,8016094839477
0,55725645431177510,discover,2976847876156
1,4973769488642211,visa16,2976847876156
0,4871626269153,mastercard,4511547309839
0,4631165822287,mastercard,8740116121091
0,49773995972810,mastercard,8642824080701
1,42856778148510,mastercard,8642824080701
2,4538773551586642,visa16,8642824080701
3,5569782596295993,discover,8642824080701
0,4359586482754568,visa16,0740492154272
1,4963347918539,mastercard,0740492154272
2,5488436468527326,discover,0740492154272
3,4964356329329,mastercard,0740492154272
4,4954848823187,mastercard,0740492154272
0,4431952257985138,visa16,5774539042348
1,4382933646855173,visa16,5774539042348
2,4943954517667,mastercard,5774539042348
3,5233275888777436,discover,5774539042348
0,4597534239856445,visa16,0706100357422
1,4911366413895942,visa16,0706100357422
2,4773746432958937,visa16,0706100357422
3,4273368917166,mastercard,0706100357422
4,4135987359493275,visa16,0706100357422
0,5411356156539676,discover,8003986519845
0,5576723552542946,discover,7074169590101
1,4251584955391918,visa16,7074169590101
2,5231522455544497,discover,7074169590101
3,5554553154684168,discover,7074169590101
4,4687848472536,mastercard,7074169590101
0,4379943752752,mastercard,4758574060913
1,4441856724994,mastercard,4758574060913
2,4959276726652695,visa16,4758574060913
3,4673734274295957,visa16,4758574060913
4,4265935671216181,visa16,4758574060913
5,4687993421984855,visa16,4758574060913
0,4191153995478268,visa16,9519000956314
1,4297638184396324,visa16,9519000956314
0,5142828134218975,discover,9425564670302
1,4754317425781,mastercard,9425564670302
2,53513832869636110,discover,9425564670302
3,4672383663111,mastercard,9425564670302
4,5595436783551522,discover,9425564670302
0,5111313196921938,discover,7223830013512
1,4666511565485748,visa16,7223830013512
2,4179241341711577,visa16,7223830013512
3,49681636362310,mastercard,7223830013512
4,4927715252535575,visa16,7223830013512
5,4181888841343263,visa16,7223830013512
0,5516151469888967,discover,3020989253915
1,5137252544351713,discover,3020989253915
2,4984216749971366,visa16,3020989253915
0,4576138786156228,visa16,7899756900237
1,4448527356833,mastercard,7899756900237
2,4233693296419438,visa16,7899756900237
3,4736752518257166,visa16,7899756900237
4,4216783878125,mastercard,7899756900237
0,4476223536545119,visa16,7781737304369
1,4323933411945318,visa16,7781737304369
2,5371813229538521,discover,7781737304369
3,4586212899441,mastercard,7781737304369
4,4251338719888176,visa16,7781737304369
5,4818197797949649,visa16,7781737304369
0,4261763113686884,visa16,0386265541878
0,52516787411626210,discover,1846008025599
1,5567859777955389,discover,1846008025599
2,4869982995134971,visa16,1846008025599
0,4984667926779,mastercard,3006170162478
1,4772157351814427,visa16,3006170162478
2,5227437276474319,discover,3006170162478
3,5443756347868821,discover,3006170162478
4,4193538914598,mastercard,3006170162478
5,4114798414351399,visa16,3006170162478
0,54952873822645910,discover,0390250423097
1,52452518761152410,discover,0390250423097
2,42818848268453310,visa16,0390250423097
3,5534846795669472,discover,0390250423097
4,5571582914871764,discover,0390250423097
0,4527566465754451,visa16,93496039408710
1,5557564477611751,discover,93496039408710
2,4259496318392545,visa16,93496039408710
3,5166212121659635,discover,93496039408710
0,4669581433848523,visa16,9206904447968
1,55735481583819910,discover,9206904447968
2,4577395552311,mastercard,9206904447968
3,4489312695925595,visa16,9206904447968
4,4563466389346,mastercard,9206904447968
5,55142693611846410,discover,9206904447968
0,5431548322824679,discover,2745299421206
1,4654142262948,mastercard,2745299421206
2,4539735131891,mastercard,2745299421206
3,4311631648612,mastercard,2745299421206
4,5597266968672233,discover,2745299421206
5,4494432394824635,visa16,2745299421206
0,4363356971661136,visa16,3953334509212
1,4596444286465,mastercard,3953334509212
2,5265336894296554,discover,3953334509212
3,5546422211486341,discover,3953334509212
0,4728311596268,mastercard,4628450331835
1,4946993396412392,visa16,4628450331835
2,4676181438899,mastercard,4628450331835
0,4925918914887366,visa16,5283822079358
1,5435491163613412,discover,5283822079358
2,4933257426399127,visa16,5283822079358
3,4238329193777,mastercard,5283822079358
4,5433743716268165,discover,5283822079358
5,5332459364543328,discover,5283822079358
0,4527345479834,mastercard,4396855397298
1,49292744196510,mastercard,4396855397298
0,4162421111141,mastercard,7209774917389
1,4962748987119,mastercard,7209774917389
2,45717794863610,mastercard,7209774917389
3,5591966675683631,discover,7209774917389
4,52466476755118610,discover,7209774917389
0,4633156161286833,visa16,7689825763614
1,44111523794710,mastercard,7689825763614
0,4183846782765348,visa16,5117066715381
0,4499928768977,mastercard,2303487538958
1,4543238951673161,visa16,2303487538958
2,52412177321729510,discover,2303487538958
3,5167776894275729,discover,2303487538958
0,55931967316766710,discover,6360072599738
1,4772378532685391,visa16,6360072599738
2,4997448322415421,visa16,6360072599738
0,5292736461869336,discover,2675987667985
1,5258957462316554,discover,2675987667985
2,4629378354551,mastercard,2675987667985
3,5113897346995352,discover,2675987667985
4,55429951445564910,discover,2675987667985
0,41218253622710,mastercard,6643616313213
0,46638983355688510,visa16,1243915061316
1,53969464642763810,discover,1243915061316
2,4964912341731745,visa16,1243915061316
0,4359431465836,mastercard,7384335897752
1,53796944556115510,discover,7384335897752
2,4513844859541156,visa16,7384335897752
3,5114351429531824,discover,7384335897752
0,4823427938618958,visa16,9220344214828
0,4943512819373,mastercard,0855300997105
0,4731837381649543,visa16,9581919586767
1,4498734332742373,visa16,9581919586767
0,5454114838538295,discover,0590087759301
1,45479982625510,mastercard,0590087759301
2,4837942142668965,visa16,0590087759301
3,5171254264361986,discover,0590087759301
4,4226634389297,mastercard,0590087759301
5,4188369785157269,visa16,0590087759301
0,5432528791811992,discover,0468595915381
1,4559688649632,mastercard,0468595915381
0,5231767729783427,discover,2921825127326
0,5579168962357526,discover,7411928953429
1,5473543365692991,discover,7411928953429
0,4525852775693,mastercard,9156696894368
1,4649942841222,mastercard,9156696894368
2,4347927472143,mastercard,9156696894368
3,4853787168474791,visa16,9156696894368
0,5544411411247258,discover,3774643101103
1,4791841876543,mastercard,3774643101103
2,4989556972818,mastercard,3774643101103
0,4681844371388,mastercard,6371055141908
1,5493492795322959,discover,6371055141908
2,47961939696310,mastercard,6371055141908
3,4816564536171714,visa16,6371055141908
4,5424438821637633,discover,6371055141908
0,4247944256517834,visa16,4347509176395
1,4651151666126,mastercard,4347509176395
2,4447392972773,mastercard,4347509176395
3,5285698128147549,discover,4347509176395
0,5182873894573459,discover,4430901323658
0,4297397984657,mastercard,5951976402772
1,4286793946196,mastercard,5951976402772
2,4398214718594293,visa16,5951976402772
3,4645523452643616,visa16,5951976402772
4,5228875499499242,discover,5951976402772
0,4511883864437663,visa16,1818681786572
1,4274558147718942,visa16,1818681786572
0,4489934498799156,visa16,5666505465232
1,4391365566563694,visa16,5666505465232
2,4671136673922,mastercard,5666505465232
3,5235163879988998,discover,5666505465232
4,5399766358496135,discover,5666505465232
0,5359594159216835,discover,2614777123694
1,5196471263548394,discover,2614777123694
2,4478315915347311,visa16,2614777123694
0,4265577525434,mastercard,2216668797061
1,49353637998610,mastercard,2216668797061
2,4881563438623137,visa16,2216668797061
3,5424776688475443,discover,2216668797061
4,5551335276919968,discover,2216668797061
5,4246586118562622,visa16,2216668797061
0,5292468252134759,discover,0151721939953
1,4694739881996561,visa16,0151721939953
2,4214336711591828,visa16,0151721939953
3,4138846472622888,visa16,0151721939953
0,4779962312547,mastercard,12565462838810
1,4977183197966,mastercard,12565462838810
2,4751571566568732,visa16,12565462838810
3,4635948494397,mastercard,12565462838810
4,4563949819675462,visa16,12565462838810
5,4643756775121,mastercard,12565462838810
0,4313371629166,mastercard,2770036739928
1,5456517228522851,discover,2770036739928
2,4745715161721,mastercard,2770036739928
0,5578732337829864,discover,4269247531072
1,4487639471156728,visa16,4269247531072
2,4318399951634836,visa16,4269247531072
0,5151618342822769,discover,8313173507732
1,4457524141639467,visa16,8313173507732
2,4842489328121,mastercard,8313173507732
3,5371239443569235,discover,8313173507732
4,42316677272968810,visa16,8313173507732
0,4634749697231494,visa16,4021501501189
1,49211759754996810,visa16,4021501501189
2,46693265221131110,visa16,4021501501189
3,5261914519787563,discover,4021501501189
0,4627355856911,mastercard,2144620473958
1,4872347197244,mastercard,2144620473958
0,46529498923982410,visa16,4843730888787
1,4487175552871,mastercard,4843730888787
2,4421237394123823,visa16,4843730888787
3,5576189847497157,discover,4843730888787
4,4762535249229951,visa16,4843730888787
0,43311629597959810,visa16,7934189797021
1,4449928947592,mastercard,7934189797021
2,4359898562976,mastercard,7934189797021
3,5534736482986182,discover,7934189797021
4,4839136725598776,visa16,7934189797021
5,4682697723378,mastercard,7934189797021
0,47376722271410,mastercard,0051848944721
1,4931151198182765,visa16,0051848944721
0,4886565727263116,visa16,9634216399027
1,4194826342195,mastercard,9634216399027
2,4258959866781,mastercard,9634216399027
3,4775826235197,mastercard,9634216399027
4,4492164381396176,visa16,9634216399027
5,4548428593499,mastercard,9634216399027
0,4859435288498,mastercard,3380734228939
1,4247225271425751,visa16,3380734228939
2,54734245758178610,discover,3380734228939
0,4564566382595,mastercard,7790545872572
1,5422278685147812,discover,7790545872572
2,4166824112773432,visa16,7790545872572
0,4835841996387,mastercard,9478711418249
1,4935248166559366,visa16,9478711418249
2,4329934533752,mastercard,9478711418249
3,4177265558751,mastercard,9478711418249
4,5473925881772441,discover,9478711418249
5,5315686826869419,discover,9478711418249
0,5236562487213773,discover,4376416099756
1,49274932432410,mastercard,4376416099756
2,4513925586363293,visa16,4376416099756
3,4197115934374662,visa16,4376416099756
4,5161887254697885,discover,4376416099756
0,4139243786292,mastercard,9011294963108
1,4172278357747639,visa16,9011294963108
2,5576928966994118,discover,9011294963108
3,4232316257414,mastercard,9011294963108
0,5553289652337113,discover,3574183909252
0,5495284689876622,discover,7434734293817
1,4759756765448545,visa16,7434734293817
2,49363936192218810,visa16,7434734293817
3,5542858194671769,discover,7434734293817
4,4573632916151441,visa16,7434734293817
5,4278821779491,mastercard,7434734293817
0,51445719668512110,discover,5426192826487
0,5493915489987695,discover,2179717695119
1,4963692897446622,visa16,2179717695119
2,45812651514110,mastercard,2179717695119
3,4968367713954746,visa16,2179717695119
4,4633253214744742,visa16,2179717695119
0,4285269941731,mastercard,0899116318164
1,5344114316155152,discover,0899116318164
2,5289235411173365,discover,0899116318164
3,4563792296445987,visa16,0899116318164
0,4193743948342575,visa16,7257591370915
1,4887922188342872,visa16,7257591370915
2,4297944337435575,visa16,7257591370915
0,4274646444171,mastercard,8529041277286
1,4624994431453,mastercard,8529041277286
2,5289786881273416,discover,8529041277286
3,4994834118387648,visa16,8529041277286
4,5459617545655272,discover,8529041277286
0,5291357338323364,discover,6105043591798
1,4464472771533694,visa16,6105043591798
2,4141549751934975,visa16,6105043591798
3,4378872651852,mastercard,6105043591798
0,4327539435522136,visa16,19442266504510
1,4919583626988,mastercard,19442266504510
2,4845842554311718,visa16,19442266504510
3,5579556465761444,discover,19442266504510
4,4415421527519655,visa16,19442266504510
0,4279554724811,mastercard,8931224884415
1,55294716315978410,discover,8931224884415
0,5425576487399367,discover,0840566755036
0,4739771578639,mastercard,2300326091363
0,4343451281547,mastercard,6277495642774
1,4683978919875,mastercard,6277495642774
2,4954933188546,mastercard,6277495642774
3,4769396467919275,visa16,6277495642774
4,4418721343663,mastercard,6277495642774
5,4221386637167,mastercard,6277495642774
0,4839743658962,mastercard,80486386766510
1,54613444244539610,discover,80486386766510
2,4959331976137,mastercard,80486386766510
0,4966399483678264,visa16,83975166980610
1,5561716944857219,discover,83975166980610
0,4218623343853387,visa16,0511964850067
0,5383264625126717,discover,0229170756277
1,4718363756767551,visa16,0229170756277
2,5423126816128129,discover,0229170756277
3,4524844134596246,visa16,0229170756277
4,4996624714231839,visa16,0229170756277
5,4284466575715141,visa16,0229170756277
0,4935253847324248,visa16,6778682948845
1,4693924232449541,visa16,6778682948845
0,4658617216954329,visa16,0944993876345
1,4418322315394391,visa16,0944993876345
2,5454329723956135,discover,0944993876345
3,4279762922355,mastercard,0944993876345
4,52753737477681810,discover,0944993876345
0,4843551534497693,visa16,5611150903916
1,4458617726977,mastercard,5611150903916
2,4869874991841,mastercard,5611150903916
0,4627415659495,mastercard,7770224474112
1,4154712451457465,visa16,7770224474112
2,5579848727962286,discover,7770224474112
3,5282749837432863,discover,7770224474112
0,4722384515733118,visa16,7343454335862
1,42438576827210,mastercard,7343454335862
0,4596154727591,mastercard,13124139885610
1,5398799511468213,discover,13124139885610
2,5486642287359187,discover,13124139885610
3,4711215885299293,visa16,13124139885610
0,4968229926846269,visa16,8333387800749
0,5331168198693297,discover,1214875818005
1,5514365955758532,discover,1214875818005
2,4681289391578,mastercard,1214875818005
3,4729234311181,mastercard,1214875818005
0,5594496268874782,discover,4301316878775
1,5588177462889887,discover,4301316878775
2,4557386381733775,visa16,4301316878775
3,5173167327738867,discover,4301316878775
4,4453538498925596,visa16,4301316878775
0,4515746389259969,visa16,6804935003385
1,5323675877627719,discover,6804935003385
2,4516541853944645,visa16,6804935003385
3,4291633471231,mastercard,6804935003385
4,4926811641799468,visa16,6804935003385
0,4319558549185119,visa16,3193586698694
0,4118637465259,mastercard,6698901278042
1,4988796988751245,visa16,6698901278042
0,4668656947538,mastercard,8413401192657
1,4178152494752956,visa16,8413401192657
0,4777299668599,mastercard,5953854041432
1,4487986538184,mastercard,5953854041432
2,4451189795843,mastercard,5953854041432
3,4457884524529,mastercard,5953854041432
0,4622547832367,mastercard,0652149266942
0,5585737566165527,discover,35567151373410
1,5466888956412732,discover,35567151373410
2,4257922825166819,visa16,35567151373410
3,4692855317822,mastercard,35567151373410
4,5286226486473684,discover,35567151373410
0,5454416724246689,discover,4482487857985
1,43368923835729610,visa16,4482487857985
0,4386152494448,mastercard,0862826578564
1,5285671892268528,discover,0862826578564
2,5564687345483235,discover,0862826578564
3,5248349256399918,discover,0862826578564
0,51416683414469810,discover,1522465770768
1,4312876434122,mastercard,1522465770768
0,4831961952198281,visa16,5357612377371
1,4542281687589,mastercard,5357612377371
2,5323291999592425,discover,5357612377371
3,5545244239186716,discover,5357612377371
4,5497491758783922,discover,5357612377371
5,4238569876652892,visa16,5357612377371
0,4657346312726768,visa16,7389289802752
1,4337814762573,mastercard,7389289802752
2,5294598434539919,discover,7389289802752
3,44834116886610,mastercard,7389289802752
4,4739434922232,mastercard,7389289802752
5,5473128974686665,discover,7389289802752
0,4585836232158586,visa16,0004663956637
0,5573225429532772,discover,64290826020210
1,4317798672394,mastercard,64290826020210
2,4178839948411,mastercard,64290826020210
3,4183114541194528,visa16,64290826020210
4,5449334553893125,discover,64290826020210
0,4274565497622,mastercard,8743757709242
0,5471954595815892,discover,2516868938901
1,5199157941225458,discover,2516868938901
2,52816321186466110,discover,2516868938901
3,4963759914257,mastercard,2516868938901
4,4382876487417423,visa16,2516868938901
5,4243497825242,mastercard,2516868938901
0,5251151671366462,discover,6696564601526
1,4457169878368,mastercard,6696564601526
2,5418262465419621,discover,6696564601526
3,4311487119462518,visa16,6696564601526
4,47535898699410,mastercard,6696564601526
5,4884797642462,mastercard,6696564601526
0,41674671275859510,visa16,4450184805049
1,4285169957419642,visa16,4450184805049
2,52127396868523410,discover,4450184805049
3,4925489977425,mastercard,4450184805049
4,5466734237615158,discover,4450184805049
0,4741288741988767,visa16,6557471953752
1,5358396851519792,discover,6557471953752
2,45224933584510,mastercard,6557471953752
3,4582987739615,mastercard,6557471953752
4,4492333442684,mastercard,6557471953752
0,5271884682283864,discover,8161060271324
0,4694583242629,mastercard,4375180982707
1,4459657128235764,visa16,4375180982707
2,4933255875543369,visa16,4375180982707
3,4612715722946,mastercard,4375180982707
4,4782444863673,mastercard,4375180982707
0,4214934151161,mastercard,3104772113652
1,4885913475477689,visa16,3104772113652
0,4299252412667,mastercard,8845676319613
0,4186542282854651,visa16,2086841972461
0,4713241178477964,visa16,88667316226210
1,5376557231843818,discover,88667316226210
2,51482262517131310,discover,88667316226210
0,4156131625532269,visa16,1095135129446
1,44366862667610,mastercard,1095135129446
2,5416276217983249,discover,1095135129446
0,4338174282146289,visa16,3896822490458
1,4748998359798,mastercard,3896822490458
0,4743194281959556,visa16,5510193332813
0,4848146936339,mastercard,1186063117846
1,4462565435623,mastercard,1186063117846
2,4625818876856,mastercard,1186063117846
3,4567488932571593,visa16,1186063117846
0,5159884698381337,discover,3413017012205
1,4642662156731,mastercard,3413017012205
2,4151111432228116,visa16,3413017012205
0,5345792713672355,discover,4003814281635
1,4931184113442394,visa16,4003814281635
0,5494382773195841,discover,3413756330533
0,48352285422665810,visa16,4528598321182
1,4176449394273,mastercard,4528598321182
2,4224779956168711,visa16,4528598321182
0,4346815482461,mastercard,2464076117012
1,45764428631510,mastercard,2464076117012
2,4464763528676723,visa16,2464076117012
3,5513157225212783,discover,2464076117012
4,4227145318416973,visa16,2464076117012
5,5425198618658882,discover,2464076117012
0,5496516134362958,discover,1392288130437
0,4684786646163,mastercard,4280452181071
1,4682655843788,mastercard,4280452181071
0,5446286597263223,discover,6447497313881
1,4544854277136524,visa16,6447497313881
0,4823619476659,mastercard,40743716394310
1,5485942637754397,discover,40743716394310
2,4181517334821,mastercard,40743716394310
3,5123397585324669,discover,40743716394310
4,5352285844696922,discover,40743716394310
5,5112423319749527,discover,40743716394310
0,4648131748199323,visa16,43320196263910
1,4635688774443722,visa16,43320196263910
2,42953685141810,mastercard,43320196263910
3,4727916989235586,visa16,43320196263910
4,4467946318196757,visa16,43320196263910
5,44515981313910,mastercard,43320196263910
0,5269832548759332,discover,8129889593518
1,4733618193785,mastercard,8129889593518
2,4323551731245,mastercard,8129889593518
0,4123143123127682,visa16,2133482059751
1,5412619411685579,discover,2133482059751
2,4158159361239748,visa16,2133482059751
0,4828651669939,mastercard,9788583148497
1,4749243877881833,visa16,9788583148497
2,4182491842791124,visa16,9788583148497
3,4384169253468293,visa16,9788583148497
4,4339521991192112,visa16,9788583148497
5,4781834217813,mastercard,9788583148497
0,4537211246746,mastercard,3230464639673
1,5314466867551379,discover,3230464639673
2,4244799333646,mastercard,3230464639673
3,4112443637771,mastercard,3230464639673
4,5521581361315698,discover,3230464639673
5,5143457376158316,discover,3230464639673
0,4476469144294323,visa16,5660073027753
1,5154242587772816,discover,5660073027753
2,4467514364554814,visa16,5660073027753
3,4724296814289,mastercard,5660073027753
0,4993211739836,mastercard,0428643038934
1,4191632364482878,visa16,0428643038934
2,4652493795726751,visa16,0428643038934
3,53478143242668610,discover,0428643038934
4,5428558955524517,discover,0428643038934
5,4673286372461,mastercard,0428643038934
0,4894822934576594,visa16,2036683839537
1,44358748412110,mastercard,2036683839537
2,4169693824191242,visa16,2036683839537
3,4186585292173,mastercard,2036683839537
4,4355299224869,mastercard,2036683839537
5,4853829317453944,visa16,2036683839537
0,4773944995483555,visa16,0242275919422
1,52737846221463210,discover,0242275919422
2,4869476994346298,visa16,0242275919422
3,5278265142934366,discover,0242275919422
4,45497727485810,mastercard,0242275919422
0,4964846535824,mastercard,1635032244913
1,4732177341397,mastercard,1635032244913
0,46489996985529510,visa16,7916167905095
1,5468147389954473,discover,7916167905095
2,4354874443291,mastercard,7916167905095
3,4988464316373,mastercard,7916167905095
4,4314471435852211,visa16,7916167905095
5,4688895497128573,visa16,7916167905095
0,5164639637291762,discover,1105519905689
1,45767553421810,mastercard,1105519905689
2,5133759631376597,discover,1105519905689
3,51263274579464610,discover,1105519905689
0,5343317194114222,discover,0696391186132
1,4132169715122,mastercard,0696391186132
0,4762214615974,mastercard,93762878828510
0,4514498843212785,visa16,9224430249514
1,4643816144763,mastercard,9224430249514
2,5354833726687622,discover,9224430249514
3,5451997328434352,discover,9224430249514
4,4647871162784,mastercard,9224430249514
0,4531629128257,mastercard,7223223162114
1,4795775618375,mastercard,7223223162114
2,52992242121417210,discover,7223223162114
3,5499939935471777,discover,7223223162114
0,5426799772786846,discover,6229649125458
0,55655275846635110,discover,7750851272291
1,4591616823799,mastercard,7750851272291
2,4553576742674,mastercard,7750851272291
3,5479223666589113,discover,7750851272291
4,4921871486176268,visa16,7750851272291
5,4747377958923,mastercard,7750851272291
0,5243418553912296,discover,5468553823919
1,4335465825244,mastercard,5468553823919
2,4668687326374328,visa16,5468553823919
3,5149871172117447,discover,5468553823919
4,5148822544652315,discover,5468553823919
0,4118479822183353,visa16,3710613724893
0,44655233326266310,visa16,2860489155773
1,47262778746239110,visa16,2860489155773
2,4959673744481,mastercard,2860489155773
0,5226961279848188,discover,3769085171901
1,4893558633737597,visa16,3769085171901
2,4448475578966,mastercard,3769085171901
3,4786659654859,mastercard,3769085171901
0,4147635936714798,visa16,0181295165774
1,4232499446767838,visa16,0181295165774
2,5423636914163117,discover,0181295165774
3,4296879871937,mastercard,0181295165774
0,5238589454258356,discover,3681021699933
1,45229727472810,mastercard,3681021699933
2,5169171239797884,discover,3681021699933
3,5549123854573976,discover,3681021699933
4,4419444244297641,visa16,3681021699933
5,4627181547912553,visa16,3681021699933
0,4471111452669,mastercard,9847771806552
1,4423253287668,mastercard,9847771806552
2,5226458965393538,discover,9847771806552
3,4141259122415486,visa16,9847771806552
0,4429228375561,mastercard,9290309963305
1,4234856626772375,visa16,9290309963305
2,4243716219666849,visa16,9290309963305
0,4322878415334,mastercard,74734138167510
1,4473431577743757,visa16,74734138167510
0,4329913247192,mastercard,2620765442087
1,5455565583421715,discover,2620765442087
2,53162266639126810,discover,2620765442087
0,5111859295392637,discover,6598985886252
1,4914783246439283,visa16,6598985886252
2,49996894716396210,visa16,6598985886252
3,4696313716936412,visa16,6598985886252
4,5257671935966827,discover,6598985886252
0,5456743127752734,discover,1917264300498
1,4586233772446499,visa16,1917264300498
2,5255159771516213,discover,1917264300498
3,5574548417214353,discover,1917264300498
4,5368557384246413,discover,1917264300498
0,4357555718394,mastercard,9562385258667
1,4763448741867,mastercard,9562385258667
2,44899837581785110,visa16,9562385258667
3,5377394981462188,discover,9562385258667
0,4361783375241,mastercard,7025944206559
1,5148497723978698,discover,7025944206559
0,52272499684355110,discover,4498144474154
1,5417175245379256,discover,4498144474154
0,4499546827642416,visa16,4817181851794
0,4668744754318,mastercard,6756530190778
1,4531822354585,mastercard,6756530190778
2,5166465524842345,discover,6756530190778
3,4321538651733753,visa16,6756530190778
4,4568479131148,mastercard,6756530190778
5,4158851787251,mastercard,6756530190778
0,4567697931395792,visa16,9686631341386
1,4238324797749223,visa16,9686631341386
2,5365196977361884,discover,9686631341386
3,4368984579422,mastercard,9686631341386
4,4448951112736,mastercard,9686631341386
5,4959837763674,mastercard,9686631341386
0,4354333855516232,visa16,2409239559674
1,5494826999989684,discover,2409239559674
2,4497138574186151,visa16,2409239559674
0,4916127713789317,visa16,3429662083457
1,4387552996793613,visa16,3429662083457
2,49937644859375210,visa16,3429662083457
0,5168693143171154,discover,2998649798479
1,5341424859872987,discover,2998649798479
0,4635585515496,mastercard,9743371216087
1,4963815352823,mastercard,9743371216087
0,5474647161824747,discover,5690765126422
0,5416345984975496,discover,5575369707541
1,5444379258997973,discover,5575369707541
0,4272326384469,mastercard,2099873664455
1,5161474452559538,discover,2099873664455
0,4331988465959474,visa16,4044497079697
0,5279368166259261,discover,5058176956512
1,4569498649847,mastercard,5058176956512
2,4758331292243834,visa16,5058176956512
0,4146141518636,mastercard,6075421864811
1,5512436511275923,discover,6075421864811
2,4117846919395,mastercard,6075421864811
3,4661686553498781,visa16,6075421864811
4,5199496384436853,discover,6075421864811
5,4353351982345854,visa16,6075421864811
0,4962243634737,mastercard,91046161698310
1,46243675176810,mastercard,91046161698310
2,5583937164925213,discover,91046161698310
0,4644325182891718,visa16,15973233235710
1,4844249197187821,visa16,15973233235710
0,5128178367265469,discover,50256002086610
1,4274727881945223,visa16,50256002086610
0,4567525886622,mastercard,5666188244701
1,5369372176696299,discover,5666188244701
2,4372291756954,mastercard,5666188244701
3,5368338182119445,discover,5666188244701
0,5397389277913791,discover,3257787769427
1,4875941617756,mastercard,3257787769427
2,4245743731741312,visa16,3257787769427
3,4871143461341,mastercard,3257787769427
0,5592919383457854,discover,2700232069859
1,4741686525424,mastercard,2700232069859
0,4396441478949241,visa16,0305492095983
1,4271435293124,mastercard,0305492095983
2,5382278629741595,discover,0305492095983
3,4212528917943876,visa16,0305492095983
0,5164941722973357,discover,7492622870748
1,4159696518614363,visa16,7492622870748
2,5433746974926879,discover,7492622870748
3,4252453689157749,visa16,7492622870748
0,43221452598812710,visa16,9848486439619
1,5154182728728683,discover,9848486439619
2,4645276575675,mastercard,9848486439619
3,46423891782327510,visa16,9848486439619
0,4162887435257,mastercard,3505150448567
0,5395665284511112,discover,3109063866201
0,5342452956238785,discover,9544087788651
1,5292366265829375,discover,9544087788651
2,5221579111452558,discover,9544087788651
0,4781116372682,mastercard,4558623097572
0,4744932795765285,visa16,3381712713487
1,4136577865288,mastercard,3381712713487
2,5132267523456452,discover,3381712713487
0,5522564389962815,discover,0774901350068
0,47947734882210,mastercard,91233765191310
1,5211654879147898,discover,91233765191310
0,5159346426881384,discover,0378087358667
1,4792547567675,mastercard,0378087358667
2,47816913339510,mastercard,0378087358667
3,4729521268623755,visa16,0378087358667
4,4778717172152812,visa16,0378087358667
0,4217429615681816,visa16,5820324073082
1,5224659627294137,discover,5820324073082
2,4571642983837444,visa16,5820324073082
0,4226397141653,mastercard,8053314792579
1,4483798298356,mastercard,8053314792579
0,5139921798398434,discover,3593053013012
1,4931172831692234,visa16,3593053013012
0,5173957674124152,discover,4440491157184
1,5281137175176717,discover,4440491157184
2,4815739484167,mastercard,4440491157184
3,4956829121119,mastercard,4440491157184
4,4676322243349,mastercard,4440491157184
0,4167777412415,mastercard,9580936255381
1,4285694822284681,visa16,9580936255381
2,4773541542812821,visa16,9580936255381
3,4461467451167,mastercard,9580936255381
0,5596969834965548,discover,4684506183778
1,4743113743471,mastercard,4684506183778
2,4989631436524846,visa16,4684506183778
3,4595658263392,mastercard,4684506183778
0,4483233833858,mastercard,0958246146809
1,4968292273776398,visa16,0958246146809
2,4183429818165211,visa16,0958246146809
3,5431679422142249,discover,0958246146809
4,4343254289336126,visa16,0958246146809
0,4232719773959,mastercard,2236769497594
1,4492157559457549,visa16,2236769497594
2,4414738288629,mastercard,2236769497594
3,4865737839623,mastercard,2236769497594
0,4181222986162157,visa16,8394457528423
1,5153685295652533,discover,8394457528423
2,51576531265354310,discover,8394457528423
3,5113461688955688,discover,8394457528423
0,4845664764157636,visa16,0166963117208
1,4454847258782,mastercard,0166963117208
2,5395427174927795,discover,0166963117208
3,5233284339676486,discover,0166963117208
4,5459699497215487,discover,0166963117208
0,5558299194269778,discover,8026429136383
1,4395538976982532,visa16,8026429136383
2,4914478851239,mastercard,8026429136383
0,4414861145455,mastercard,7069559148645
1,5433118118565718,discover,7069559148645
0,4755361263713,mastercard,3581624481523
1,4961669858179493,visa16,3581624481523
2,4913441991932,mastercard,3581624481523
3,4554512636698199,visa16,3581624481523
4,4447952246949,mastercard,3581624481523
5,4471886678357,mastercard,3581624481523
0,4922336621842413,visa16,2047786427194
1,4199556445694239,visa16,2047786427194
2,4933638754849116,visa16,2047786427194
0,4199365433428943,visa16,3862151801737
1,4376254312846869,visa16,3862151801737
2,5218335496317899,discover,3862151801737
3,4173188177548,mastercard,3862151801737
4,55296552288713910,discover,3862151801737
0,5191698889879275,discover,3159056530775
0,5497817452678796,discover,9727385629562
1,5491748317224458,discover,9727385629562
0,5549553865288265,discover,3723369605625
1,4256879392783965,visa16,3723369605625
2,42128954357310,mastercard,3723369605625
3,4364886461876,mastercard,3723369605625
0,4793382641713776,visa16,9485426840644
0,49342123679847910,visa16,4716465865463
1,4924752795731125,visa16,4716465865463
2,4545979662125573,visa16,4716465865463
3,4635259572316419,visa16,4716465865463
0,4637583581322,mastercard,0403145240672
0,4883522415491,mastercard,5459682016522
1,4734638595694,mastercard,5459682016522
2,4385376965936,mastercard,5459682016522
0,4494862136299,mastercard,4743559544422
1,4782442198885535,visa16,4743559544422
0,5126911856757113,discover,6189156551205
0,4188625435457,mastercard,5222574514318
1,5313426765329915,discover,5222574514318
0,4746756814271787,visa16,0756612922994
1,5372729422586985,discover,0756612922994
2,4997391255423956,visa16,0756612922994
3,5461695471591485,discover,0756612922994
4,4259125982244886,visa16,0756612922994
0,4617978625592211,visa16,7669106008188
1,4129833185716,mastercard,7669106008188
0,5435368972278662,discover,9884092777368
1,4156979442627,mastercard,9884092777368
2,4995663886239,mastercard,9884092777368
0,4446318554913,mastercard,9422164477758
1,4334255254814,mastercard,9422164477758
2,4543941149974173,visa16,9422164477758
3,4867943873941,mastercard,9422164477758
0,48939687182910,mastercard,6280850122632
1,5428856122243361,discover,6280850122632
2,4853224418983322,visa16,6280850122632
3,4315688836585269,visa16,6280850122632
4,5282129876174249,discover,6280850122632
0,4679798789167,mastercard,4468218167837
1,4618621926155317,visa16,4468218167837
2,4552135919286755,visa16,4468218167837
3,4376685962876781,visa16,4468218167837
4,5433547556387294,discover,4468218167837
5,4231333426426845,visa16,4468218167837
0,4438412666742631,visa16,0795176762343
1,5259717277892317,discover,0795176762343
2,4818818347248,mastercard,0795176762343
3,54738652562895410,discover,0795176762343
4,5355936377958454,discover,0795176762343
0,52441416811361210,discover,8342532005338
1,4242411186611132,visa16,8342532005338
2,4522343849542,mastercard,8342532005338
3,5288336253394324,discover,8342532005338
4,4741834761434,mastercard,8342532005338
5,4998249582595,mastercard,8342532005338
0,4667348657674734,visa16,5847914693484
0,4256371417431,mastercard,6420555255226
0,4493176414152,mastercard,4894810764767
1,4248976849415,mastercard,4894810764767
2,4941181348161,mastercard,4894810764767
3,5469348527732941,discover,4894810764767
4,5468343169252671,discover,4894810764767
0,5395152752691874,discover,2708569807074
1,4638694363126725,visa16,2708569807074
0,4846345361743445,visa16,5873102086972
1,47188893727710,mastercard,5873102086972
0,4988341819169,mastercard,06503033866610
0,4471993151635644,visa16,17072572035910
0,49152712825448510,visa16,3388731855672
1,4686438647317,mastercard,3388731855672
2,5173784161486328,discover,3388731855672
3,4243486739361566,visa16,3388731855672
4,5267638277168864,discover,3388731855672
0,4321989536522665,visa16,3192152549932
1,5121223124723322,discover,3192152549932
2,4682828285355252,visa16,3192152549932
3,4157652157889446,visa16,3192152549932
4,4156258281865376,visa16,3192152549932
5,5166321368474572,discover,3192152549932
0,5434544612991499,discover,4896133015204
0,4825113744466,mastercard,7987289286439
1,4921932261442,mastercard,7987289286439
2,5191135854749282,discover,7987289286439
3,4964292419737514,visa16,7987289286439
4,53146266743838910,discover,7987289286439
0,4446592656368248,visa16,6288474094159
0,4666719743126,mastercard,8688969467505
1,53422296616269210,discover,8688969467505
2,5466226341872221,discover,8688969467505
3,4282959137794267,visa16,8688969467505
4,5481839745585453,discover,8688969467505
5,4986817245224,mastercard,8688969467505
0,5452294453948672,discover,5086747943563
0,4415635722779562,visa16,3490682520544
1,5297266143949467,discover,3490682520544
2,4321928498263496,visa16,3490682520544
0,4373262122192,mastercard,6510710035114
1,4364766539927572,visa16,6510710035114
2,4757433635211212,visa16,6510710035114
3,4628363461496,mastercard,6510710035114
4,4165725975129,mastercard,6510710035114
0,5444337757353726,discover,6000595952118
1,5279567852341552,discover,6000595952118
